D:\Proyectos Personales\Java\WSEventosApp\src\main\java\com\misiontic\api\HolaMundo.java
D:\Proyectos Personales\Java\WSEventosApp\src\main\java\com\misiontic\conf\AppConfiguracion.java
D:\Proyectos Personales\Java\WSEventosApp\src\main\java\com\misiontic\dao\imp\SalonDAOImp.java
D:\Proyectos Personales\Java\WSEventosApp\src\main\java\com\misiontic\modelo\Salon.java
D:\Proyectos Personales\Java\WSEventosApp\src\main\java\com\misiontic\utilitario\RegistrosCrud.java
D:\Proyectos Personales\Java\WSEventosApp\src\main\java\com\misiontic\api\Salon.java
D:\Proyectos Personales\Java\WSEventosApp\src\main\java\com\misiontic\dao\imp\ServicioDAOImp.java
D:\Proyectos Personales\Java\WSEventosApp\src\main\java\com\misiontic\dao\imp\ReservaDAOImp.java
D:\Proyectos Personales\Java\WSEventosApp\src\main\java\com\misiontic\utilitario\ParametrosPorDefecto.java
D:\Proyectos Personales\Java\WSEventosApp\src\main\java\com\misiontic\dao\SalonDAO.java
D:\Proyectos Personales\Java\WSEventosApp\src\main\java\com\misiontic\dao\ClienteDAO.java
D:\Proyectos Personales\Java\WSEventosApp\src\main\java\com\misiontic\modelo\Servicio.java
D:\Proyectos Personales\Java\WSEventosApp\src\main\java\com\misiontic\dao\ServicioDAO.java
D:\Proyectos Personales\Java\WSEventosApp\src\main\java\com\misiontic\dao\CRUD.java
D:\Proyectos Personales\Java\WSEventosApp\src\main\java\com\misiontic\dao\SqlCierre.java
D:\Proyectos Personales\Java\WSEventosApp\src\main\java\com\misiontic\api\Reserva.java
D:\Proyectos Personales\Java\WSEventosApp\src\main\java\com\misiontic\dao\ReservaDAO.java
D:\Proyectos Personales\Java\WSEventosApp\src\main\java\com\misiontic\wseventosapp\App.java
D:\Proyectos Personales\Java\WSEventosApp\src\main\java\com\misiontic\api\Servicio.java
D:\Proyectos Personales\Java\WSEventosApp\src\main\java\com\misiontic\modelo\Cliente.java
D:\Proyectos Personales\Java\WSEventosApp\src\main\java\com\misiontic\modelo\Reserva.java
D:\Proyectos Personales\Java\WSEventosApp\src\main\java\com\misiontic\utilitario\Paginacion.java
D:\Proyectos Personales\Java\WSEventosApp\src\main\java\com\misiontic\api\Cliente.java
D:\Proyectos Personales\Java\WSEventosApp\src\main\java\com\misiontic\dao\imp\ClienteDAOImp.java
